([('t', '/home/piguerry/Téléchargements/build/t/t', 'EXECUTABLE'),
  ('libexpat.so.1', '/lib/x86_64-linux-gnu/libexpat.so.1', 'BINARY'),
  ('libz.so.1', '/lib/x86_64-linux-gnu/libz.so.1', 'BINARY'),
  ('lib-dynload/_hashlib.cpython-310-x86_64-linux-gnu.so',
   '/usr/lib/python3.10/lib-dynload/_hashlib.cpython-310-x86_64-linux-gnu.so',
   'EXTENSION'),
  ('lib-dynload/_contextvars.cpython-310-x86_64-linux-gnu.so',
   '/usr/lib/python3.10/lib-dynload/_contextvars.cpython-310-x86_64-linux-gnu.so',
   'EXTENSION'),
  ('lib-dynload/_decimal.cpython-310-x86_64-linux-gnu.so',
   '/usr/lib/python3.10/lib-dynload/_decimal.cpython-310-x86_64-linux-gnu.so',
   'EXTENSION'),
  ('lib-dynload/_uuid.cpython-310-x86_64-linux-gnu.so',
   '/usr/lib/python3.10/lib-dynload/_uuid.cpython-310-x86_64-linux-gnu.so',
   'EXTENSION'),
  ('lib-dynload/resource.cpython-310-x86_64-linux-gnu.so',
   '/usr/lib/python3.10/lib-dynload/resource.cpython-310-x86_64-linux-gnu.so',
   'EXTENSION'),
  ('lib-dynload/_lzma.cpython-310-x86_64-linux-gnu.so',
   '/usr/lib/python3.10/lib-dynload/_lzma.cpython-310-x86_64-linux-gnu.so',
   'EXTENSION'),
  ('lib-dynload/_bz2.cpython-310-x86_64-linux-gnu.so',
   '/usr/lib/python3.10/lib-dynload/_bz2.cpython-310-x86_64-linux-gnu.so',
   'EXTENSION'),
  ('lib-dynload/_ssl.cpython-310-x86_64-linux-gnu.so',
   '/usr/lib/python3.10/lib-dynload/_ssl.cpython-310-x86_64-linux-gnu.so',
   'EXTENSION'),
  ('lib-dynload/termios.cpython-310-x86_64-linux-gnu.so',
   '/usr/lib/python3.10/lib-dynload/termios.cpython-310-x86_64-linux-gnu.so',
   'EXTENSION'),
  ('lib-dynload/readline.cpython-310-x86_64-linux-gnu.so',
   '/usr/lib/python3.10/lib-dynload/readline.cpython-310-x86_64-linux-gnu.so',
   'EXTENSION'),
  ('lib-dynload/_opcode.cpython-310-x86_64-linux-gnu.so',
   '/usr/lib/python3.10/lib-dynload/_opcode.cpython-310-x86_64-linux-gnu.so',
   'EXTENSION'),
  ('lib-dynload/_ctypes.cpython-310-x86_64-linux-gnu.so',
   '/usr/lib/python3.10/lib-dynload/_ctypes.cpython-310-x86_64-linux-gnu.so',
   'EXTENSION'),
  ('lib-dynload/_posixshmem.cpython-310-x86_64-linux-gnu.so',
   '/usr/lib/python3.10/lib-dynload/_posixshmem.cpython-310-x86_64-linux-gnu.so',
   'EXTENSION'),
  ('lib-dynload/_multiprocessing.cpython-310-x86_64-linux-gnu.so',
   '/usr/lib/python3.10/lib-dynload/_multiprocessing.cpython-310-x86_64-linux-gnu.so',
   'EXTENSION'),
  ('lib-dynload/mmap.cpython-310-x86_64-linux-gnu.so',
   '/usr/lib/python3.10/lib-dynload/mmap.cpython-310-x86_64-linux-gnu.so',
   'EXTENSION'),
  ('lib-dynload/_queue.cpython-310-x86_64-linux-gnu.so',
   '/usr/lib/python3.10/lib-dynload/_queue.cpython-310-x86_64-linux-gnu.so',
   'EXTENSION'),
  ('lib-dynload/_multibytecodec.cpython-310-x86_64-linux-gnu.so',
   '/usr/lib/python3.10/lib-dynload/_multibytecodec.cpython-310-x86_64-linux-gnu.so',
   'EXTENSION'),
  ('lib-dynload/_codecs_jp.cpython-310-x86_64-linux-gnu.so',
   '/usr/lib/python3.10/lib-dynload/_codecs_jp.cpython-310-x86_64-linux-gnu.so',
   'EXTENSION'),
  ('lib-dynload/_codecs_kr.cpython-310-x86_64-linux-gnu.so',
   '/usr/lib/python3.10/lib-dynload/_codecs_kr.cpython-310-x86_64-linux-gnu.so',
   'EXTENSION'),
  ('lib-dynload/_codecs_iso2022.cpython-310-x86_64-linux-gnu.so',
   '/usr/lib/python3.10/lib-dynload/_codecs_iso2022.cpython-310-x86_64-linux-gnu.so',
   'EXTENSION'),
  ('lib-dynload/_codecs_cn.cpython-310-x86_64-linux-gnu.so',
   '/usr/lib/python3.10/lib-dynload/_codecs_cn.cpython-310-x86_64-linux-gnu.so',
   'EXTENSION'),
  ('lib-dynload/_codecs_tw.cpython-310-x86_64-linux-gnu.so',
   '/usr/lib/python3.10/lib-dynload/_codecs_tw.cpython-310-x86_64-linux-gnu.so',
   'EXTENSION'),
  ('lib-dynload/_codecs_hk.cpython-310-x86_64-linux-gnu.so',
   '/usr/lib/python3.10/lib-dynload/_codecs_hk.cpython-310-x86_64-linux-gnu.so',
   'EXTENSION'),
  ('pandas/_libs/writers.cpython-310-x86_64-linux-gnu.so',
   '/home/piguerry/.local/lib/python3.10/site-packages/pandas/_libs/writers.cpython-310-x86_64-linux-gnu.so',
   'EXTENSION'),
  ('pandas/_libs/window/indexers.cpython-310-x86_64-linux-gnu.so',
   '/home/piguerry/.local/lib/python3.10/site-packages/pandas/_libs/window/indexers.cpython-310-x86_64-linux-gnu.so',
   'EXTENSION'),
  ('pandas/_libs/window/aggregations.cpython-310-x86_64-linux-gnu.so',
   '/home/piguerry/.local/lib/python3.10/site-packages/pandas/_libs/window/aggregations.cpython-310-x86_64-linux-gnu.so',
   'EXTENSION'),
  ('pandas/_libs/tslibs/vectorized.cpython-310-x86_64-linux-gnu.so',
   '/home/piguerry/.local/lib/python3.10/site-packages/pandas/_libs/tslibs/vectorized.cpython-310-x86_64-linux-gnu.so',
   'EXTENSION'),
  ('pandas/_libs/tslibs/tzconversion.cpython-310-x86_64-linux-gnu.so',
   '/home/piguerry/.local/lib/python3.10/site-packages/pandas/_libs/tslibs/tzconversion.cpython-310-x86_64-linux-gnu.so',
   'EXTENSION'),
  ('pandas/_libs/tslibs/timezones.cpython-310-x86_64-linux-gnu.so',
   '/home/piguerry/.local/lib/python3.10/site-packages/pandas/_libs/tslibs/timezones.cpython-310-x86_64-linux-gnu.so',
   'EXTENSION'),
  ('pandas/_libs/tslibs/timestamps.cpython-310-x86_64-linux-gnu.so',
   '/home/piguerry/.local/lib/python3.10/site-packages/pandas/_libs/tslibs/timestamps.cpython-310-x86_64-linux-gnu.so',
   'EXTENSION'),
  ('pandas/_libs/tslibs/timedeltas.cpython-310-x86_64-linux-gnu.so',
   '/home/piguerry/.local/lib/python3.10/site-packages/pandas/_libs/tslibs/timedeltas.cpython-310-x86_64-linux-gnu.so',
   'EXTENSION'),
  ('pandas/_libs/tslibs/strptime.cpython-310-x86_64-linux-gnu.so',
   '/home/piguerry/.local/lib/python3.10/site-packages/pandas/_libs/tslibs/strptime.cpython-310-x86_64-linux-gnu.so',
   'EXTENSION'),
  ('pandas/_libs/tslibs/period.cpython-310-x86_64-linux-gnu.so',
   '/home/piguerry/.local/lib/python3.10/site-packages/pandas/_libs/tslibs/period.cpython-310-x86_64-linux-gnu.so',
   'EXTENSION'),
  ('pandas/_libs/tslibs/parsing.cpython-310-x86_64-linux-gnu.so',
   '/home/piguerry/.local/lib/python3.10/site-packages/pandas/_libs/tslibs/parsing.cpython-310-x86_64-linux-gnu.so',
   'EXTENSION'),
  ('pandas/_libs/tslibs/offsets.cpython-310-x86_64-linux-gnu.so',
   '/home/piguerry/.local/lib/python3.10/site-packages/pandas/_libs/tslibs/offsets.cpython-310-x86_64-linux-gnu.so',
   'EXTENSION'),
  ('pandas/_libs/tslibs/np_datetime.cpython-310-x86_64-linux-gnu.so',
   '/home/piguerry/.local/lib/python3.10/site-packages/pandas/_libs/tslibs/np_datetime.cpython-310-x86_64-linux-gnu.so',
   'EXTENSION'),
  ('pandas/_libs/tslibs/nattype.cpython-310-x86_64-linux-gnu.so',
   '/home/piguerry/.local/lib/python3.10/site-packages/pandas/_libs/tslibs/nattype.cpython-310-x86_64-linux-gnu.so',
   'EXTENSION'),
  ('pandas/_libs/tslibs/fields.cpython-310-x86_64-linux-gnu.so',
   '/home/piguerry/.local/lib/python3.10/site-packages/pandas/_libs/tslibs/fields.cpython-310-x86_64-linux-gnu.so',
   'EXTENSION'),
  ('pandas/_libs/tslibs/dtypes.cpython-310-x86_64-linux-gnu.so',
   '/home/piguerry/.local/lib/python3.10/site-packages/pandas/_libs/tslibs/dtypes.cpython-310-x86_64-linux-gnu.so',
   'EXTENSION'),
  ('pandas/_libs/tslibs/conversion.cpython-310-x86_64-linux-gnu.so',
   '/home/piguerry/.local/lib/python3.10/site-packages/pandas/_libs/tslibs/conversion.cpython-310-x86_64-linux-gnu.so',
   'EXTENSION'),
  ('pandas/_libs/tslibs/ccalendar.cpython-310-x86_64-linux-gnu.so',
   '/home/piguerry/.local/lib/python3.10/site-packages/pandas/_libs/tslibs/ccalendar.cpython-310-x86_64-linux-gnu.so',
   'EXTENSION'),
  ('pandas/_libs/tslibs/base.cpython-310-x86_64-linux-gnu.so',
   '/home/piguerry/.local/lib/python3.10/site-packages/pandas/_libs/tslibs/base.cpython-310-x86_64-linux-gnu.so',
   'EXTENSION'),
  ('pandas/_libs/testing.cpython-310-x86_64-linux-gnu.so',
   '/home/piguerry/.local/lib/python3.10/site-packages/pandas/_libs/testing.cpython-310-x86_64-linux-gnu.so',
   'EXTENSION'),
  ('pandas/_libs/sparse.cpython-310-x86_64-linux-gnu.so',
   '/home/piguerry/.local/lib/python3.10/site-packages/pandas/_libs/sparse.cpython-310-x86_64-linux-gnu.so',
   'EXTENSION'),
  ('pandas/_libs/reshape.cpython-310-x86_64-linux-gnu.so',
   '/home/piguerry/.local/lib/python3.10/site-packages/pandas/_libs/reshape.cpython-310-x86_64-linux-gnu.so',
   'EXTENSION'),
  ('pandas/_libs/reduction.cpython-310-x86_64-linux-gnu.so',
   '/home/piguerry/.local/lib/python3.10/site-packages/pandas/_libs/reduction.cpython-310-x86_64-linux-gnu.so',
   'EXTENSION'),
  ('pandas/_libs/properties.cpython-310-x86_64-linux-gnu.so',
   '/home/piguerry/.local/lib/python3.10/site-packages/pandas/_libs/properties.cpython-310-x86_64-linux-gnu.so',
   'EXTENSION'),
  ('pandas/_libs/parsers.cpython-310-x86_64-linux-gnu.so',
   '/home/piguerry/.local/lib/python3.10/site-packages/pandas/_libs/parsers.cpython-310-x86_64-linux-gnu.so',
   'EXTENSION'),
  ('pandas/_libs/ops_dispatch.cpython-310-x86_64-linux-gnu.so',
   '/home/piguerry/.local/lib/python3.10/site-packages/pandas/_libs/ops_dispatch.cpython-310-x86_64-linux-gnu.so',
   'EXTENSION'),
  ('pandas/_libs/ops.cpython-310-x86_64-linux-gnu.so',
   '/home/piguerry/.local/lib/python3.10/site-packages/pandas/_libs/ops.cpython-310-x86_64-linux-gnu.so',
   'EXTENSION'),
  ('pandas/_libs/missing.cpython-310-x86_64-linux-gnu.so',
   '/home/piguerry/.local/lib/python3.10/site-packages/pandas/_libs/missing.cpython-310-x86_64-linux-gnu.so',
   'EXTENSION'),
  ('pandas/_libs/json.cpython-310-x86_64-linux-gnu.so',
   '/home/piguerry/.local/lib/python3.10/site-packages/pandas/_libs/json.cpython-310-x86_64-linux-gnu.so',
   'EXTENSION'),
  ('pandas/_libs/join.cpython-310-x86_64-linux-gnu.so',
   '/home/piguerry/.local/lib/python3.10/site-packages/pandas/_libs/join.cpython-310-x86_64-linux-gnu.so',
   'EXTENSION'),
  ('pandas/_libs/interval.cpython-310-x86_64-linux-gnu.so',
   '/home/piguerry/.local/lib/python3.10/site-packages/pandas/_libs/interval.cpython-310-x86_64-linux-gnu.so',
   'EXTENSION'),
  ('pandas/_libs/internals.cpython-310-x86_64-linux-gnu.so',
   '/home/piguerry/.local/lib/python3.10/site-packages/pandas/_libs/internals.cpython-310-x86_64-linux-gnu.so',
   'EXTENSION'),
  ('pandas/_libs/indexing.cpython-310-x86_64-linux-gnu.so',
   '/home/piguerry/.local/lib/python3.10/site-packages/pandas/_libs/indexing.cpython-310-x86_64-linux-gnu.so',
   'EXTENSION'),
  ('pandas/_libs/index.cpython-310-x86_64-linux-gnu.so',
   '/home/piguerry/.local/lib/python3.10/site-packages/pandas/_libs/index.cpython-310-x86_64-linux-gnu.so',
   'EXTENSION'),
  ('pandas/_libs/hashing.cpython-310-x86_64-linux-gnu.so',
   '/home/piguerry/.local/lib/python3.10/site-packages/pandas/_libs/hashing.cpython-310-x86_64-linux-gnu.so',
   'EXTENSION'),
  ('pandas/_libs/groupby.cpython-310-x86_64-linux-gnu.so',
   '/home/piguerry/.local/lib/python3.10/site-packages/pandas/_libs/groupby.cpython-310-x86_64-linux-gnu.so',
   'EXTENSION'),
  ('pandas/_libs/arrays.cpython-310-x86_64-linux-gnu.so',
   '/home/piguerry/.local/lib/python3.10/site-packages/pandas/_libs/arrays.cpython-310-x86_64-linux-gnu.so',
   'EXTENSION'),
  ('pandas/_libs/algos.cpython-310-x86_64-linux-gnu.so',
   '/home/piguerry/.local/lib/python3.10/site-packages/pandas/_libs/algos.cpython-310-x86_64-linux-gnu.so',
   'EXTENSION'),
  ('lib-dynload/_json.cpython-310-x86_64-linux-gnu.so',
   '/usr/lib/python3.10/lib-dynload/_json.cpython-310-x86_64-linux-gnu.so',
   'EXTENSION'),
  ('numpy/core/_multiarray_tests.cpython-310-x86_64-linux-gnu.so',
   '/home/piguerry/.local/lib/python3.10/site-packages/numpy/core/_multiarray_tests.cpython-310-x86_64-linux-gnu.so',
   'EXTENSION'),
  ('psutil/_psutil_posix.cpython-310-x86_64-linux-gnu.so',
   '/usr/lib/python3/dist-packages/psutil/_psutil_posix.cpython-310-x86_64-linux-gnu.so',
   'EXTENSION'),
  ('psutil/_psutil_linux.cpython-310-x86_64-linux-gnu.so',
   '/usr/lib/python3/dist-packages/psutil/_psutil_linux.cpython-310-x86_64-linux-gnu.so',
   'EXTENSION'),
  ('lib-dynload/_curses.cpython-310-x86_64-linux-gnu.so',
   '/usr/lib/python3.10/lib-dynload/_curses.cpython-310-x86_64-linux-gnu.so',
   'EXTENSION'),
  ('numpy/core/_multiarray_umath.cpython-310-x86_64-linux-gnu.so',
   '/home/piguerry/.local/lib/python3.10/site-packages/numpy/core/_multiarray_umath.cpython-310-x86_64-linux-gnu.so',
   'EXTENSION'),
  ('numpy/linalg/lapack_lite.cpython-310-x86_64-linux-gnu.so',
   '/home/piguerry/.local/lib/python3.10/site-packages/numpy/linalg/lapack_lite.cpython-310-x86_64-linux-gnu.so',
   'EXTENSION'),
  ('lib-dynload/_asyncio.cpython-310-x86_64-linux-gnu.so',
   '/usr/lib/python3.10/lib-dynload/_asyncio.cpython-310-x86_64-linux-gnu.so',
   'EXTENSION'),
  ('numpy/random/mtrand.cpython-310-x86_64-linux-gnu.so',
   '/home/piguerry/.local/lib/python3.10/site-packages/numpy/random/mtrand.cpython-310-x86_64-linux-gnu.so',
   'EXTENSION'),
  ('numpy/random/_sfc64.cpython-310-x86_64-linux-gnu.so',
   '/home/piguerry/.local/lib/python3.10/site-packages/numpy/random/_sfc64.cpython-310-x86_64-linux-gnu.so',
   'EXTENSION'),
  ('numpy/random/_philox.cpython-310-x86_64-linux-gnu.so',
   '/home/piguerry/.local/lib/python3.10/site-packages/numpy/random/_philox.cpython-310-x86_64-linux-gnu.so',
   'EXTENSION'),
  ('numpy/random/_pcg64.cpython-310-x86_64-linux-gnu.so',
   '/home/piguerry/.local/lib/python3.10/site-packages/numpy/random/_pcg64.cpython-310-x86_64-linux-gnu.so',
   'EXTENSION'),
  ('numpy/random/_mt19937.cpython-310-x86_64-linux-gnu.so',
   '/home/piguerry/.local/lib/python3.10/site-packages/numpy/random/_mt19937.cpython-310-x86_64-linux-gnu.so',
   'EXTENSION'),
  ('numpy/random/bit_generator.cpython-310-x86_64-linux-gnu.so',
   '/home/piguerry/.local/lib/python3.10/site-packages/numpy/random/bit_generator.cpython-310-x86_64-linux-gnu.so',
   'EXTENSION'),
  ('numpy/random/_generator.cpython-310-x86_64-linux-gnu.so',
   '/home/piguerry/.local/lib/python3.10/site-packages/numpy/random/_generator.cpython-310-x86_64-linux-gnu.so',
   'EXTENSION'),
  ('numpy/random/_bounded_integers.cpython-310-x86_64-linux-gnu.so',
   '/home/piguerry/.local/lib/python3.10/site-packages/numpy/random/_bounded_integers.cpython-310-x86_64-linux-gnu.so',
   'EXTENSION'),
  ('numpy/random/_common.cpython-310-x86_64-linux-gnu.so',
   '/home/piguerry/.local/lib/python3.10/site-packages/numpy/random/_common.cpython-310-x86_64-linux-gnu.so',
   'EXTENSION'),
  ('numpy/fft/_pocketfft_internal.cpython-310-x86_64-linux-gnu.so',
   '/home/piguerry/.local/lib/python3.10/site-packages/numpy/fft/_pocketfft_internal.cpython-310-x86_64-linux-gnu.so',
   'EXTENSION'),
  ('numpy/linalg/_umath_linalg.cpython-310-x86_64-linux-gnu.so',
   '/home/piguerry/.local/lib/python3.10/site-packages/numpy/linalg/_umath_linalg.cpython-310-x86_64-linux-gnu.so',
   'EXTENSION'),
  ('markupsafe/_speedups.cpython-310-x86_64-linux-gnu.so',
   '/usr/lib/python3/dist-packages/markupsafe/_speedups.cpython-310-x86_64-linux-gnu.so',
   'EXTENSION'),
  ('lib-dynload/_sqlite3.cpython-310-x86_64-linux-gnu.so',
   '/usr/lib/python3.10/lib-dynload/_sqlite3.cpython-310-x86_64-linux-gnu.so',
   'EXTENSION'),
  ('pandas/io/sas/_sas.cpython-310-x86_64-linux-gnu.so',
   '/home/piguerry/.local/lib/python3.10/site-packages/pandas/io/sas/_sas.cpython-310-x86_64-linux-gnu.so',
   'EXTENSION'),
  ('pandas/_libs/tslib.cpython-310-x86_64-linux-gnu.so',
   '/home/piguerry/.local/lib/python3.10/site-packages/pandas/_libs/tslib.cpython-310-x86_64-linux-gnu.so',
   'EXTENSION'),
  ('pandas/_libs/lib.cpython-310-x86_64-linux-gnu.so',
   '/home/piguerry/.local/lib/python3.10/site-packages/pandas/_libs/lib.cpython-310-x86_64-linux-gnu.so',
   'EXTENSION'),
  ('pandas/_libs/hashtable.cpython-310-x86_64-linux-gnu.so',
   '/home/piguerry/.local/lib/python3.10/site-packages/pandas/_libs/hashtable.cpython-310-x86_64-linux-gnu.so',
   'EXTENSION'),
  ('libcrypto.so.3', '/lib/x86_64-linux-gnu/libcrypto.so.3', 'BINARY'),
  ('libmpdec.so.3', '/lib/x86_64-linux-gnu/libmpdec.so.3', 'BINARY'),
  ('libuuid.so.1', '/lib/x86_64-linux-gnu/libuuid.so.1', 'BINARY'),
  ('liblzma.so.5', '/lib/x86_64-linux-gnu/liblzma.so.5', 'BINARY'),
  ('libbz2.so.1.0', '/lib/x86_64-linux-gnu/libbz2.so.1.0', 'BINARY'),
  ('libssl.so.3', '/lib/x86_64-linux-gnu/libssl.so.3', 'BINARY'),
  ('libtinfo.so.6', '/lib/x86_64-linux-gnu/libtinfo.so.6', 'BINARY'),
  ('libreadline.so.8', '/lib/x86_64-linux-gnu/libreadline.so.8', 'BINARY'),
  ('libffi.so.8', '/lib/x86_64-linux-gnu/libffi.so.8', 'BINARY'),
  ('libstdc++.so.6', '/lib/x86_64-linux-gnu/libstdc++.so.6', 'BINARY'),
  ('libgcc_s.so.1', '/lib/x86_64-linux-gnu/libgcc_s.so.1', 'BINARY'),
  ('libncursesw.so.6', '/lib/x86_64-linux-gnu/libncursesw.so.6', 'BINARY'),
  ('libopenblas64_p-r0-15028c96.3.21.so',
   '/home/piguerry/.local/lib/python3.10/site-packages/numpy/core/../../numpy.libs/libopenblas64_p-r0-15028c96.3.21.so',
   'BINARY'),
  ('libquadmath-96973f99.so.0.0.0',
   '/home/piguerry/.local/lib/python3.10/site-packages/numpy/core/../../numpy.libs/libquadmath-96973f99.so.0.0.0',
   'BINARY'),
  ('libgfortran-040039e1.so.5.0.0',
   '/home/piguerry/.local/lib/python3.10/site-packages/numpy/core/../../numpy.libs/libgfortran-040039e1.so.5.0.0',
   'BINARY'),
  ('libsqlite3.so.0', '/lib/x86_64-linux-gnu/libsqlite3.so.0', 'BINARY'),
  ('libpython3.10.so.1.0',
   '/lib/x86_64-linux-gnu/libpython3.10.so.1.0',
   'BINARY'),
  ('base_library.zip',
   '/home/piguerry/Téléchargements/build/t/base_library.zip',
   'DATA'),
  ('pandas/io/formats/templates/string.tpl',
   '/home/piguerry/.local/lib/python3.10/site-packages/pandas/io/formats/templates/string.tpl',
   'DATA'),
  ('pandas/io/formats/templates/html.tpl',
   '/home/piguerry/.local/lib/python3.10/site-packages/pandas/io/formats/templates/html.tpl',
   'DATA'),
  ('pandas/io/formats/templates/latex_longtable.tpl',
   '/home/piguerry/.local/lib/python3.10/site-packages/pandas/io/formats/templates/latex_longtable.tpl',
   'DATA'),
  ('pandas/io/formats/templates/latex_table.tpl',
   '/home/piguerry/.local/lib/python3.10/site-packages/pandas/io/formats/templates/latex_table.tpl',
   'DATA'),
  ('pandas/io/formats/templates/html_style.tpl',
   '/home/piguerry/.local/lib/python3.10/site-packages/pandas/io/formats/templates/html_style.tpl',
   'DATA'),
  ('pandas/io/formats/templates/latex.tpl',
   '/home/piguerry/.local/lib/python3.10/site-packages/pandas/io/formats/templates/latex.tpl',
   'DATA'),
  ('pandas/io/formats/templates/html_table.tpl',
   '/home/piguerry/.local/lib/python3.10/site-packages/pandas/io/formats/templates/html_table.tpl',
   'DATA')],)
