('/home/piguerry/Téléchargements/build/t/t',
 True,
 False,
 True,
 None,
 None,
 False,
 False,
 None,
 True,
 True,
 False,
 None,
 None,
 None,
 '/home/piguerry/Téléchargements/build/t/t.pkg',
 [('PYZ-00.pyz', '/home/piguerry/Téléchargements/build/t/PYZ-00.pyz', 'PYZ'),
  ('struct',
   '/home/piguerry/Téléchargements/build/t/localpycs/struct.pyc',
   'PYMODULE'),
  ('pyimod01_archive',
   '/home/piguerry/Téléchargements/build/t/localpycs/pyimod01_archive.pyc',
   'PYMODULE'),
  ('pyimod02_importers',
   '/home/piguerry/Téléchargements/build/t/localpycs/pyimod02_importers.pyc',
   'PYMODULE'),
  ('pyimod03_ctypes',
   '/home/piguerry/Téléchargements/build/t/localpycs/pyimod03_ctypes.pyc',
   'PYMODULE'),
  ('pyiboot01_bootstrap',
   '/home/piguerry/.local/lib/python3.10/site-packages/PyInstaller/loader/pyiboot01_bootstrap.py',
   'PYSOURCE'),
  ('pyi_rth_inspect',
   '/home/piguerry/.local/lib/python3.10/site-packages/PyInstaller/hooks/rthooks/pyi_rth_inspect.py',
   'PYSOURCE'),
  ('pyi_rth_pkgutil',
   '/home/piguerry/.local/lib/python3.10/site-packages/PyInstaller/hooks/rthooks/pyi_rth_pkgutil.py',
   'PYSOURCE'),
  ('pyi_rth_multiprocessing',
   '/home/piguerry/.local/lib/python3.10/site-packages/PyInstaller/hooks/rthooks/pyi_rth_multiprocessing.py',
   'PYSOURCE'),
  ('pyi_rth_pkgres',
   '/home/piguerry/.local/lib/python3.10/site-packages/PyInstaller/hooks/rthooks/pyi_rth_pkgres.py',
   'PYSOURCE'),
  ('t', '/home/piguerry/Téléchargements/t.py', 'PYSOURCE')],
 [],
 False,
 False,
 1679922978,
 [('run',
   '/home/piguerry/.local/lib/python3.10/site-packages/PyInstaller/bootloader/Linux-64bit-intel/run',
   'EXECUTABLE')])
